Amazon Electronics Consumer Reviews Sentiment Analysis
…
amazon <- as_tibble(amazon)
amazon

## # A tibble: 5,000 x 19
##    id    dateAdded dateUpdated name  brand categories primaryCategori keys 
##    <chr> <chr>     <chr>       <chr> <chr> <chr>      <chr>            <chr>
##  1 AVqV 2017-03- 2018-10-25 "Ama Amaz Computers Electronics      alln
##  2 AVqV 2017-03- 2018-10-25 "Ama Amaz Computers Electronics      alln
##  3 AVqV 2017-03- 2018-10-25 "Ama Amaz Computers Electronics      alln
##  4 AVqV 2017-03- 2018-10-25 "Ama Amaz Computers Electronics      alln
##  5 AVqV 2017-03- 2018-10-25 "Ama Amaz Computers Electronics      alln
##  6 AVqV 2017-03- 2018-10-25 "Ama Amaz Computers Electronics      alln
##  7 AVqV 2017-03- 2018-10-25 "Ama Amaz Computers Electronics      alln
##  8 AVqV 2017-03- 2018-10-25 "Ama Amaz Computers Electronics      alln
##  9 AVqV 2017-03- 2018-10-25 "Ama Amaz Computers Electronics      alln
## 10 AVqV 2017-03- 2018-10-25 "Ama Amaz Computers Electronics      alln
## #  with 4,990 more rows, and 11 more variables: manufacturer <chr>,
## #   reviews.date <chr>, reviews.dateAdded <chr>, reviews.dateSeen <chr>,
## #   reviews.doRecommend <lgl>, reviews.id <int>, reviews.numHelpful <int>,
## #   reviews.rating <int>, reviews.text <chr>, reviews.title <chr>,
## #   length_review <int>
…
